Séance 2: solution des exercices
…
Exercice 4: Filtrez les données pour garder les plantes selon les 3 cas de figures suivant (indépendants les uns des autres):

Plantes qui ne sont pas du background Ler et qui ont été traitées avec une température fluctuante.

filter(expt1, background!="Ler" & fluctuation=="Var")

## # A tibble: 389 x 15
##    plant_nb genotype background temperature fluctuation day.length vernalization
##       <dbl> <chr>    <chr>            <dbl> <chr>            <dbl> <chr>        
##  1        1 Col Ama  Col                 12 Var                 16 NV           
##  2        2 Col Ama  Col                 12 Var                 16 NV           
##  3        3 Col Ama  Col                 12 Var                 16 NV           
##  4        4 Col Ama  Col                 12 Var                 16 NV           
##  5        5 Col Ama  Col                 12 Var                 16 NV           
##  6        6 Col Ama  Col                 12 Var                 16 NV           
##  7        7 Col Ama  Col                 12 Var                 16 NV           
##  8        8 Col Ama  Col                 12 Var                 16 NV           
##  9        1 Col Ama  Col                 12 Var                  8 NV           
## 10        2 Col Ama  Col                 12 Var                  8 NV           
## # … with 379 more rows, and 8 more variables: survival.bolt <chr>, bolt <chr>,
## #   days.to.bolt <dbl>, days.to.flower <dbl>, rosette.leaf.num <dbl>,
## #   cauline.leaf.num <dbl>, blade.length.mm <dbl>, total.leaf.length.mm <dbl>

Plantes qui ont fleuries (bolt) en moins de 57 jours et qui ont moins de 40 feuilles de rosette

filter(expt1, days.to.bolt<57 & cauline.leaf.num<40)

## # A tibble: 464 x 15
##    plant_nb genotype background temperature fluctuation day.length vernalization
##       <dbl> <chr>    <chr>            <dbl> <chr>            <dbl> <chr>        
##  1        1 Col Ama  Col                 12 Con                 16 NV           
##  2        2 Col Ama  Col                 12 Con                 16 NV           
##  3        3 Col Ama  Col                 12 Con                 16 NV           
##  4        4 Col Ama  Col                 12 Con                 16 NV           
##  5        5 Col Ama  Col                 12 Con                 16 NV           
##  6        6 Col Ama  Col                 12 Con                 16 NV           
##  7        7 Col Ama  Col                 12 Con                 16 NV           
##  8        8 Col Ama  Col                 12 Con                 16 NV           
##  9        1 Col Ama  Col                 12 Var                 16 NV           
## 10        2 Col Ama  Col                 12 Var                 16 NV           
## # … with 454 more rows, and 8 more variables: survival.bolt <chr>, bolt <chr>,
## #   days.to.bolt <dbl>, days.to.flower <dbl>, rosette.leaf.num <dbl>,
## #   cauline.leaf.num <dbl>, blade.length.mm <dbl>, total.leaf.length.mm <dbl>

Plantes du génotype fca-6 pour qui le blade.length.mm n’est pas manquant

filter(expt1, genotype=="fca-6", !is.na(blade.length.mm))

## # A tibble: 44 x 15
##    plant_nb genotype background temperature fluctuation day.length vernalization
##       <dbl> <chr>    <chr>            <dbl> <chr>            <dbl> <chr>        
##  1        1 fca-6    Ler                 12 Con                 16 NV           
##  2        2 fca-6    Ler                 12 Con                 16 NV           
##  3        3 fca-6    Ler                 12 Con                 16 NV           
##  4        4 fca-6    Ler                 12 Con                 16 NV           
##  5        5 fca-6    Ler                 12 Con                 16 NV           
##  6        6 fca-6    Ler                 12 Con                 16 NV           
##  7        7 fca-6    Ler                 12 Con                 16 NV           
##  8        8 fca-6    Ler                 12 Con                 16 NV           
##  9        1 fca-6    Ler                 12 Con                  8 NV           
## 10        2 fca-6    Ler                 12 Con                  8 NV           
## # … with 34 more rows, and 8 more variables: survival.bolt <chr>, bolt <chr>,
## #   days.to.bolt <dbl>, days.to.flower <dbl>, rosette.leaf.num <dbl>,
## #   cauline.leaf.num <dbl>, blade.length.mm <dbl>, total.leaf.length.mm <dbl>
